"HPA023911",FALSE
"HPA026107",FALSE
"HPA014294",TRUE
"HPA000553",TRUE
"HPA005631",TRUE
"HPA005824",TRUE
"HPA003283",TRUE
"HPA004842",FALSE
"HPA011306",FALSE
"HPA011953",TRUE
"HPA013692",TRUE
"HPA015627",TRUE
"HPA016439",TRUE
"HPA016609",TRUE
"HPA016567",TRUE
"HPA021836",FALSE
"HPA028085",TRUE
"HPA035307",FALSE
"HPA035873",TRUE
"HPA035874",TRUE
"HPA034877",FALSE
"HPA038548",FALSE
"HPA038547",FALSE
"HPA040692",TRUE
"HPA040715",TRUE
"HPA040878",TRUE
"HPA042196",FALSE
"HPA041779",FALSE
"HPA040948",TRUE
"HPA043442",FALSE
"HPA045946",FALSE
"HPA048946",TRUE
"HPA051816",FALSE
"HPA052215",TRUE
"HPA052648",TRUE
"HPA053774",TRUE
"HPA054745",FALSE
"HPA056953",TRUE
"HPA057478",FALSE
"HPA062100",TRUE
"HPA062866",TRUE
"HPA064305",FALSE
"HPA064689",TRUE
"HPA065607",TRUE
"HPA003376",TRUE
"HPA001325",FALSE
"HPA001410",TRUE
"HPA004754",TRUE
"HPA008024",TRUE
"HPA035231",FALSE
"HPA030948",FALSE
"HPA030949",FALSE
"HPA036350",TRUE
"HPA036351",TRUE
"HPA038392",FALSE
"HPA036697",FALSE
"HPA038394",FALSE
"HPA040441",FALSE
"HPA040410",FALSE
"HPA041454",TRUE
"HPA043887",TRUE
"HPA045140",FALSE
"HPA045060",TRUE
"HPA044649",TRUE
"HPA048382",FALSE
"HPA048839",FALSE
"HPA050862",FALSE
"HPA051182",FALSE
"HPA051258",TRUE
"HPA054474",FALSE
"HPA054836",TRUE
"HPA060030",TRUE
"HPA061333",FALSE
"HPA061751",TRUE
"HPA062244",FALSE
"HPA063255",TRUE
"HPA063270",TRUE
"HPA064606",FALSE
"HPA065041",TRUE
"HPA066188",FALSE
"HPA001524",TRUE
"HPA001525",FALSE
"HPA003827",FALSE
"HPA007384",FALSE
"HPA003429",FALSE
"HPA007040",FALSE
"HPA007099",FALSE
"HPA008279",FALSE
"HPA011085",TRUE
"HPA014246",TRUE
"HPA014298",TRUE
"HPA014374",TRUE
"HPA022475",FALSE
"HPA022899",TRUE
"HPA023950",FALSE
"HPA024426",TRUE
"HPA026620",FALSE
"HPA024815",FALSE
"HPA027563",TRUE
"HPA028864",FALSE
"HPA031824",FALSE
"HPA031806",TRUE
"HPA034556",FALSE
"HPA034557",FALSE
"HPA037831",FALSE
"HPA038108",FALSE
"HPA038109",FALSE
"HPA038341",FALSE
"HPA037830",FALSE
"HPA038340",FALSE
"HPA041086",FALSE
"HPA041660",TRUE
"HPA043557",FALSE
"HPA044246",FALSE
"HPA043191",FALSE
"HPA046878",FALSE
"HPA046972",TRUE
"HPA048869",FALSE
"HPA049058",TRUE
"HPA049378",TRUE
"HPA050640",TRUE
"HPA051894",FALSE
"HPA052139",TRUE
"HPA052386",TRUE
"HPA052646",TRUE
"HPA052838",FALSE
"HPA055662",TRUE
"HPA056172",FALSE
"HPA057337",TRUE
"HPA057540",FALSE
"HPA060721",TRUE
"HPA061834",FALSE
"HPA063327",FALSE
"HPA063548",TRUE
"HPA064604",TRUE
"HPA065009",FALSE
"HPA065027",TRUE
"HPA065402",TRUE
"HPA065676",TRUE
"HPA065831",FALSE
"HPA065939",FALSE
"HPA066240",TRUE
"HPA067577",TRUE
"HPA000846",FALSE
"HPA000403",FALSE
"HPA001007",TRUE
"HPA001019",FALSE
"HPA001371",TRUE
"HPA003060",FALSE
"HPA003014",FALSE
"HPA011740",TRUE
"HPA012053",FALSE
"HPA012770",TRUE
"HPA013143",TRUE
"HPA016037",TRUE
"HPA018804",FALSE
"HPA018664",FALSE
"HPA018808",FALSE
"HPA018677",FALSE
"HPA031797",TRUE
"HPA036288",FALSE
"HPA036289",FALSE
"HPA039375",TRUE
"HPA040503",FALSE
"HPA041187",FALSE
"HPA041870",FALSE
"HPA040888",TRUE
"HPA040914",FALSE
"HPA040876",TRUE
"HPA042524",FALSE
"HPA045827",FALSE
"HPA048093",FALSE
"HPA049525",TRUE
"HPA049717",TRUE
"HPA049828",FALSE
"HPA050249",FALSE
"HPA052080",TRUE
"HPA053530",TRUE
"HPA057792",FALSE
"HPA058037",TRUE
"HPA058161",FALSE
"HPA060273",TRUE
"HPA061286",TRUE
"HPA062035",FALSE
"HPA062146",FALSE
"HPA063125",FALSE
"HPA063272",TRUE
"HPA066131",FALSE
"HPA067602",FALSE
"HPA000844",FALSE
"HPA018161",TRUE
"HPA024616",FALSE
"HPA027843",FALSE
"HPA035444",FALSE
"HPA035443",FALSE
"HPA036018",TRUE
"HPA038637",FALSE
"HPA038636",FALSE
"HPA043203",FALSE
"HPA044545",FALSE
"HPA044604",TRUE
"HPA044184",FALSE
"HPA046535",FALSE
"HPA047173",FALSE
"HPA049270",TRUE
"HPA052278",FALSE
"HPA054230",FALSE
"HPA054626",FALSE
"HPA054911",FALSE
"HPA055116",FALSE
"HPA056539",FALSE
"HPA057075",TRUE
"HPA059064",TRUE
"HPA061960",TRUE
"HPA063820",TRUE
"HPA064710",FALSE
"HPA065970",TRUE
"HPA066333",TRUE
"HPA000823",FALSE
"HPA000853",FALSE
"HPA006666",TRUE
"HPA006581",TRUE
"HPA006748",FALSE
"HPA008907",FALSE
"HPA021754",FALSE
"HPA026934",TRUE
"HPA025068",FALSE
"HPA027440",FALSE
"HPA027431",FALSE
"HPA028577",TRUE
"HPA028601",TRUE
"HPA028567",TRUE
"HPA029496",FALSE
"HPA029497",FALSE
"HPA029703",TRUE
"HPA029700",TRUE
"HPA029702",TRUE
"HPA029090",FALSE
"HPA031993",TRUE
"HPA035110",FALSE
"HPA034499",TRUE
"HPA035111",FALSE
"HPA030034",FALSE
"HPA031991",FALSE
"HPA036600",FALSE
"HPA034498",FALSE
"HPA042909",TRUE
"HPA051577",TRUE
"HPA052502",TRUE
"HPA056110",TRUE
"HPA059328",FALSE
"HPA064360",TRUE
"HPA064353",TRUE
"HPA065477",TRUE
"HPA067614",TRUE
"HPA002127",TRUE
"HPA001887",FALSE
"HPA002035",TRUE
"HPA007514",TRUE
"HPA008023",TRUE
"HPA012635",FALSE
"HPA012308",TRUE
"HPA012857",FALSE
"HPA013885",TRUE
"HPA015137",TRUE
"HPA015737",TRUE
"HPA018444",TRUE
"HPA023109",FALSE
"HPA023317",FALSE
"HPA022852",FALSE
"HPA026658",TRUE
"HPA028608",FALSE
"HPA031412",TRUE
"HPA030717",FALSE
"HPA031413",TRUE
"HPA036925",FALSE
"HPA041977",TRUE
"HPA041921",TRUE
"HPA043700",TRUE
"HPA045593",FALSE
"HPA046433",FALSE
"HPA045822",TRUE
"HPA046579",TRUE
"HPA046862",FALSE
"HPA047780",FALSE
"HPA049425",TRUE
"HPA050221",FALSE
"HPA051370",TRUE
"HPA051556",TRUE
"HPA052841",TRUE
"HPA054665",TRUE
"HPA054669",FALSE
"HPA058416",FALSE
"HPA057179",TRUE
"HPA059886",TRUE
"HPA060527",TRUE
"HPA061704",TRUE
"HPA063182",FALSE
"HPA064755",TRUE
"HPA039392",FALSE
"HPA040513",FALSE
"HPA042512",TRUE
"HPA050280",TRUE
"HPA050895",FALSE
"HPA052227",FALSE
"HPA052701",TRUE
"HPA052863",FALSE
"HPA053008",FALSE
"HPA053256",FALSE
"HPA053835",FALSE
"HPA054954",TRUE
"HPA055978",TRUE
"HPA056862",FALSE
"HPA057474",TRUE
"HPA059583",TRUE
"HPA060461",FALSE
"HPA064453",TRUE
"HPA029148",TRUE
"HPA039762",TRUE
"HPA047518",FALSE
"HPA018419",FALSE
"HPA001485",FALSE
"HPA003917",TRUE
"HPA002880",TRUE
"HPA006225",TRUE
"HPA007626",TRUE
"HPA007418",FALSE
"HPA018075",TRUE
"HPA018105",FALSE
"HPA018411",FALSE
"HPA018421",FALSE
"HPA020978",FALSE
"HPA020979",FALSE
"HPA027227",FALSE
"HPA030278",TRUE
"HPA032073",FALSE
"HPA032074",FALSE
"HPA035008",FALSE
"HPA031012",FALSE
"HPA031013",FALSE
"HPA036639",FALSE
"HPA039313",TRUE
"HPA039762*1",FALSE
"HPA040809",FALSE
"HPA046211",FALSE
"HPA046075",FALSE
"HPA046509",TRUE
"HPA047091",FALSE
"HPA047518*1",FALSE
"HPA048790",FALSE
"HPA048951",FALSE
"HPA051893",TRUE
"HPA052460",FALSE
"HPA052679",FALSE
"HPA053614",TRUE
"HPA054699",FALSE
"HPA055703",FALSE
"HPA056262",FALSE
"HPA056515",FALSE
"HPA057921",FALSE
"HPA057891",FALSE
"HPA058772",TRUE
"HPA060040",TRUE
"HPA063012",FALSE
"HPA063631",FALSE
"HPA064355",FALSE
"HPA064516",FALSE
"HPA065850",TRUE
"HPA067202",FALSE
"HPA005849",TRUE
"HPA001195",TRUE
"HPA002530",TRUE
"HPA002840",TRUE
"HPA006136",TRUE
"HPA006375",TRUE
"HPA008350",TRUE
"HPA014823",FALSE
"HPA014720",FALSE
"HPA022273",TRUE
"HPA023536",TRUE
"HPA031085",FALSE
"HPA030580",TRUE
"HPA035192",FALSE
"HPA035191",FALSE
"HPA032082",FALSE
"HPA032081",TRUE
"HPA039980",FALSE
"HPA041170",TRUE
"HPA041418",TRUE
"HPA041624",TRUE
"HPA044337",FALSE
"HPA046392",TRUE
"HPA045729",FALSE
"HPA046918",FALSE
"HPA047522",TRUE
"HPA047799",FALSE
"HPA047632",TRUE
"HPA048743",TRUE
"HPA051239",FALSE
"HPA052953",TRUE
"HPA053694",FALSE
"HPA053984",TRUE
"HPA054609",TRUE
"HPA054974",TRUE
"HPA055781",FALSE
"HPA056206",FALSE
"HPA060519",TRUE
"HPA061756",TRUE
"HPA063302",TRUE
"HPA063480",TRUE
"HPA063663",FALSE
"HPA064494",TRUE
"HPA064511",TRUE
"HPA064512",TRUE
"HPA065007",FALSE
"HPA064967",FALSE
"HPA065437",TRUE
"HPA066337",TRUE
"HPA067039",TRUE
"HPA067302",FALSE
"HPA003207",FALSE
"HPA004939",TRUE
"HPA010797",TRUE
"HPA010739",TRUE
"HPA020556",TRUE
"HPA025283",TRUE
"HPA030418",TRUE
"HPA029957",TRUE
"HPA031506",FALSE
"HPA035427",TRUE
"HPA036045",FALSE
"HPA036044",FALSE
"HPA037549",FALSE
"HPA038405",FALSE
"HPA038380",FALSE
"HPA038800",FALSE
"HPA040621",TRUE
"HPA040923",TRUE
"HPA040944",TRUE
"HPA041055",TRUE
"HPA047478",FALSE
"HPA047778",FALSE
"HPA050476",TRUE
"HPA055752",TRUE
"HPA058014",FALSE
"HPA058470",FALSE
"HPA063750",FALSE
"HPA065038",TRUE
"HPA066135",TRUE
"HPA001475",FALSE
"HPA001589",FALSE
"HPA006880",TRUE
"HPA007213",FALSE
"HPA009712",FALSE
"HPA013998",FALSE
"HPA014144",FALSE
"HPA015705",FALSE
"HPA024527",TRUE
"HPA026685",TRUE
"HPA028181",TRUE
"HPA031843",FALSE
"HPA041504",TRUE
"HPA041871",FALSE
"HPA042129",FALSE
"HPA041372",FALSE
"HPA041253",FALSE
"HPA042428",FALSE
"HPA042521",FALSE
"HPA045409",TRUE
"HPA045030",TRUE
"HPA046056",TRUE
"HPA046697",TRUE
"HPA047241",TRUE
"HPA047674",FALSE
"HPA048614",TRUE
"HPA049799",TRUE
"HPA050585",TRUE
"HPA053715",FALSE
"HPA053778",TRUE
"HPA056325",FALSE
"HPA056447",FALSE
"HPA057722",TRUE
"HPA057721",TRUE
"HPA058320",FALSE
"HPA060093",FALSE
"HPA061174",TRUE
"HPA063011",TRUE
"HPA063573",TRUE
"HPA063909",TRUE
"HPA067265",FALSE
"HPA001238",TRUE
"HPA003929",FALSE
"HPA007663",FALSE
"HPA007664",TRUE
"HPA008044",FALSE
"HPA008043",FALSE
"HPA019151",TRUE
"HPA020925",TRUE
"HPA023166",FALSE
"HPA023236",FALSE
"HPA036286",TRUE
"HPA036287",TRUE
"HPA042435",TRUE
"HPA043281",TRUE
"HPA043937",FALSE
"HPA044382",FALSE
"HPA044304",TRUE
"HPA047248",FALSE
"HPA050631",TRUE
"HPA051908",FALSE
"HPA053035",FALSE
"HPA055037",TRUE
"HPA056756",FALSE
"HPA058160",TRUE
"HPA058780",FALSE
"HPA058862",FALSE
"HPA059203",FALSE
"HPA060021",FALSE
"HPA060253",TRUE
"HPA061582",TRUE
"HPA064998",TRUE
"HPA064422",FALSE
"HPA066883",FALSE
"HPA001618",FALSE
"HPA005856",FALSE
"HPA006087",FALSE
"HPA012557",FALSE
"HPA012827",FALSE
"HPA018292",TRUE
"HPA018211",FALSE
"HPA020338",TRUE
"HPA021320",FALSE
"HPA029916",FALSE
"HPA029917",FALSE
"HPA028993",FALSE
"HPA030402",FALSE
"HPA030401",FALSE
"HPA030403",FALSE
"HPA028992",FALSE
"HPA034695",FALSE
"HPA032052",FALSE
"HPA034796",TRUE
"HPA032053",FALSE
"HPA035574",FALSE
"HPA030958",FALSE
"HPA034795",FALSE
"HPA035573",FALSE
"HPA035907",FALSE
"HPA036346",FALSE
"HPA036347",FALSE
"HPA039991",FALSE
"HPA039683",FALSE
"HPA039837",FALSE
"HPA040776",FALSE
"HPA041192",FALSE
"HPA042834",FALSE
"HPA043135",FALSE
"HPA043370",FALSE
"HPA046122",FALSE
"HPA049029",TRUE
"HPA049727",FALSE
"HPA049741",FALSE
"HPA051549",FALSE
"HPA051948",FALSE
"HPA054481",FALSE
"HPA054986",FALSE
"HPA055658",FALSE
"HPA056428",TRUE
"HPA059391",FALSE
"HPA061440",TRUE
"HPA063926",FALSE
"HPA064794",FALSE
"HPA065389",FALSE
"HPA065953",FALSE
"HPA003552",FALSE
"HPA003347",TRUE
"HPA008301",FALSE
"HPA008300",FALSE
"HPA008895",FALSE
"HPA008896",FALSE
"HPA011905",TRUE
"HPA025697",FALSE
"HPA027569",FALSE
"HPA027567",FALSE
"HPA027568",FALSE
"HPA026790",TRUE
"HPA028671",FALSE
"HPA028731",FALSE
"HPA029300",FALSE
"HPA030721",FALSE
"HPA030722",TRUE
"HPA034621",FALSE
"HPA039162",TRUE
"HPA039380",FALSE
"HPA040213",FALSE
"HPA040196",FALSE
"HPA040813",FALSE
"HPA043163",TRUE
"HPA045549",TRUE
"HPA045579",FALSE
"HPA045104",FALSE
"HPA046525",FALSE
"HPA048203",FALSE
"HPA048622",FALSE
"HPA050342",FALSE
"HPA051604",FALSE
"HPA051110",TRUE
"HPA054356",FALSE
"HPA054924",FALSE
"HPA057322",TRUE
"HPA058210",FALSE
"HPA058849",FALSE
"HPA059814",FALSE
"HPA062031",TRUE
"HPA062494",TRUE
"HPA062430",TRUE
"HPA063201",TRUE
"HPA064937",FALSE
"HPA065860",FALSE
"HPA067385",FALSE
"HPA047245",TRUE
"HPA047776",TRUE
"HPA048223",FALSE
"HPA048768",TRUE
"HPA051327",TRUE
"HPA052926",FALSE
"HPA053036",FALSE
"HPA054403",TRUE
"HPA054584",TRUE
"HPA054960",TRUE
"HPA055023",TRUE
"HPA056730",TRUE
"HPA057690",FALSE
"HPA058389",TRUE
"HPA058120",FALSE
"HPA059228",TRUE
"HPA060188",TRUE
"HPA064119",FALSE
"HPA067301",TRUE
"HPA028287",TRUE
"HPA002550",FALSE
"HPA018944",NA
"HPA040701",NA
"HPA035199",NA
"HPA035072",FALSE
"HPA032122",NA
"HPA035464",NA
"HPA036774",FALSE
"HPA035916",NA
"HPA040766",FALSE
"HPA042110",NA
"HPA043971",NA
"HPA043642",NA
"HPA045205",NA
"HPA045163",NA
"HPA045929",FALSE
"HPA047127",NA
"HPA047659",FALSE
"HPA047699",NA
"HPA048536",FALSE
"HPA048965",NA
"HPA051839",NA
"HPA053270",NA
"HPA053417",NA
"HPA054082",NA
"HPA054088",FALSE
"HPA054002",NA
"HPA054723",FALSE
"HPA055936",NA
"HPA057798",FALSE
"HPA058296",NA
"HPA058448",FALSE
"HPA059146",FALSE
"HPA059582",FALSE
"HPA059733",FALSE
"HPA062251",NA
"HPA062580",FALSE
"HPA063471",NA
"HPA064001",FALSE
"HPA066228",FALSE
"HPA066644",FALSE
"HPA066645",FALSE
"HPA066967",FALSE
"HPA066389",NA
"HPA067988",FALSE
"HPA068961",NA
"HPA069727",FALSE
"HPA069798",FALSE
"HPA069844",FALSE
"HPA070733",FALSE
"HPA001886",NA
"HPA018155",NA
"HPA045690",FALSE
"HPA001581",FALSE
"HPA049270*1",NA
"HPA035145",FALSE
"HPA035230",NA
"HPA035053",FALSE
"HPA035808",FALSE
"HPA038456",FALSE
"HPA038471",NA
"HPA040429",FALSE
"HPA041271",FALSE
"HPA041264",FALSE
"HPA041602",NA
"HPA042383",NA
"HPA041773",NA
"HPA042432",NA
"HPA043747",NA
"HPA043650",FALSE
"HPA043660",FALSE
"HPA046920",NA
"HPA047838",FALSE
"HPA048133",NA
"HPA048188",FALSE
"HPA048879",NA
"HPA048933",NA
"HPA049292",NA
"HPA051513",NA
"HPA053194",FALSE
"HPA054548",NA
"HPA056364",FALSE
"HPA058406",FALSE
"HPA058515",NA
"HPA060894",NA
"HPA061940",NA
"HPA062293",FALSE
"HPA063478",FALSE
"HPA063916",NA
"HPA064615",NA
"HPA065029",NA
"HPA065175",NA
"HPA065474",NA
"HPA065555",FALSE
"HPA068016",FALSE
"HPA068660",NA
"HPA068479",NA
"HPA068556",NA
"HPA069132",FALSE
"HPA069534",FALSE
