HPA.ID(or.Ab.name)	ENSG.ID
HPA023911	ENSG00000147724
HPA025068	ENSG00000164743
HPA014294	ENSG00000102755
HPA005824	ENSG00000089472
HPA045946	ENSG00000068079
HPA004842	ENSG00000029534
HPA011953	ENSG00000053918
HPA015627	ENSG00000007516
HPA016439	ENSG00000100314
HPA016567	ENSG00000095981
HPA021836	ENSG00000091704
HPA028085	ENSG00000086619
HPA035307	ENSG00000096093
HPA035873	ENSG00000087274
HPA052227	ENSG00000084734
HPA038547	ENSG00000084110
HPA040692	ENSG00000099769
HPA062866	ENSG00000008300
HPA040878	ENSG00000087258
HPA041779	ENSG00000010361
HPA048946	ENSG00000017427
HPA051816	ENSG00000064787
HPA003376	ENSG00000128254
HPA001325	ENSG00000136244
HPA044649	ENSG00000125538
HPA004754	ENSG00000115457
HPA008024	ENSG00000128052
HPA035231	ENSG00000135100
HPA036350	ENSG00000112379
HPA038392	ENSG00000113742
HPA056862	ENSG00000136425
HPA040410	ENSG00000133103
HPA041454	ENSG00000112149
HPA065041	ENSG00000121807
HPA054474	ENSG00000122068
HPA048839	ENSG00000119326
HPA061333	ENSG00000119669
HPA001524	ENSG00000145192
HPA007384	ENSG00000143278
HPA003429	ENSG00000142330
HPA007040	ENSG00000138030
HPA063548	ENSG00000140274
HPA014298	ENSG00000157017
HPA014374	ENSG00000145996
HPA056172	ENSG00000141560
HPA024426	ENSG00000137033
HPA048869	ENSG00000144504
HPA051894	ENSG00000152804
HPA031824	ENSG00000154079
HPA031806	ENSG00000148926
HPA034557	ENSG00000138380
HPA037831	ENSG00000151465
HPA038109	ENSG00000138640
HPA041086	ENSG00000140718
HPA064604	ENSG00000149927
HPA060461	ENSG00000141753
HPA050640	ENSG00000146678
HPA067577	ENSG00000144191
HPA052646	ENSG00000149596
HPA063327	ENSG00000147883
HPA065009	ENSG00000155265
HPA000846	ENSG00000100578
HPA001019	ENSG00000102048
HPA045827	ENSG00000102245
HPA012770	ENSG00000101439
HPA018804	ENSG00000109458
HPA031797	ENSG00000105726
HPA036288	ENSG00000108176
HPA039375	ENSG00000104093
HPA039392	ENSG00000101639
HPA041870	ENSG00000105671
HPA058037	ENSG00000102970
HPA042524	ENSG00000105479
HPA063125	ENSG00000111537
HPA062035	ENSG00000102466
HPA067602	ENSG00000105509
HPA050280	ENSG00000108700
HPA061286	ENSG00000105550
HPA061960	ENSG00000182674
HPA024616	ENSG00000196208
HPA043203	ENSG00000188452
HPA036018	ENSG00000214274
HPA038637	ENSG00000189057
HPA044604	ENSG00000185305
HPA044184	ENSG00000198003
HPA054911	ENSG00000188676
HPA054230	ENSG00000178171
HPA055116	ENSG00000243811
HPA056539	ENSG00000197584
HPA057075	ENSG00000215644
HPA000853	ENSG00000161180
HPA006666	ENSG00000167772
HPA006581	ENSG00000168496
HPA029090	ENSG00000163577
HPA053008	ENSG00000164972
HPA026934	ENSG00000163823
HPA028567	ENSG00000163638
HPA030034	ENSG00000162949
HPA029702	ENSG00000164062
HPA064353	ENSG00000163464
HPA035111	ENSG00000160298
HPA034498	ENSG00000164308
HPA036925	ENSG00000168772
HPA042909	ENSG00000161573
HPA053835	ENSG00000163618
HPA002035	ENSG00000170458
HPA052701	ENSG00000170835
HPA058416	ENSG00000175197
HPA013885	ENSG00000168944
HPA015737	ENSG00000172071
HPA061704	ENSG00000173826
HPA030717	ENSG00000172421
HPA028608	ENSG00000176927
HPA060527	ENSG00000173302
HPA041921	ENSG00000169758
HPA046433	ENSG00000169047
HPA045822	ENSG00000169429
HPA054954	ENSG00000169245
HPA051370	ENSG00000171560
HPA063182	ENSG00000169704
HPA050895	ENSG00000170561
HPA059583	ENSG00000067048
HPA064453	ENSG00000110680
HPA039313	ENSG00000087303
HPA001485	ENSG00000089775
HPA018944	ENSG00000140105
HPA035199	ENSG00000140992
HPA035072	ENSG00000006555
HPA035464	ENSG00000160180
HPA036774	ENSG00000163623
HPA035916	ENSG00000146070
HPA040766	ENSG00000099910
HPA042110	ENSG00000109610
HPA043971	ENSG00000165915
HPA043642	ENSG00000113441
HPA045205	ENSG00000129214
HPA045163	ENSG00000173702
HPA045929	ENSG00000013293
HPA047127	ENSG00000127530
HPA053270	ENSG00000012504
HPA048536	ENSG00000100362
HPA048965	ENSG00000106591
HPA051839	ENSG00000167749
HPA053417	ENSG00000102265
HPA054082	ENSG00000125508
HPA069798	ENSG00000153814
HPA054002	ENSG00000157542
HPA054723	ENSG00000108576
HPA055936	ENSG00000166292
HPA067988	ENSG00000138083
HPA058296	ENSG00000143502
HPA058448	ENSG00000105048
HPA059146	ENSG00000139515
HPA059582	ENSG00000242550
HPA062251	ENSG00000174482
HPA069844	ENSG00000188766
HPA064001	ENSG00000181830
HPA066645	ENSG00000254585
HPA070733	ENSG00000108309
HPA018421	ENSG00000100227
HPA002880	ENSG00000099250
HPA067301	ENSG00000007908
HPA007626	ENSG00000095015
HPA018105	ENSG00000015520
HPA020978	ENSG00000087448
HPA032074	ENSG00000074935
HPA035008	ENSG00000001617
HPA064355	ENSG00000064933
HPA036639	ENSG00000025434
HPA040809	ENSG00000078328
HPA047091	ENSG00000078814
HPA051893	ENSG00000095777
HPA041624	ENSG00000119630
HPA048743	ENSG00000134250
HPA064967	ENSG00000117650
HPA002840	ENSG00000118257
HPA006136	ENSG00000129946
HPA052953	ENSG00000131652
HPA032081	ENSG00000120949
HPA044337	ENSG00000127324
HPA031085	ENSG00000117289
HPA054960	ENSG00000120937
HPA035192	ENSG00000115970
HPA056206	ENSG00000126259
HPA045729	ENSG00000126467
HPA055781	ENSG00000116205
HPA047799	ENSG00000129933
HPA065007	ENSG00000132170
HPA063302	ENSG00000112715
HPA058389	ENSG00000130702
HPA059228	ENSG00000123131
HPA031506	ENSG00000139874
HPA065038	ENSG00000149968
HPA020556	ENSG00000146530
HPA030418	ENSG00000160190
HPA029957	ENSG00000146374
HPA035427	ENSG00000137251
HPA058014	ENSG00000145029
HPA038405	ENSG00000156502
HPA058470	ENSG00000148737
HPA040621	ENSG00000140263
HPA055752	ENSG00000136810
HPA047778	ENSG00000145916
HPA001475	ENSG00000102362
HPA006880	ENSG00000104112
HPA050585	ENSG00000106483
HPA013998	ENSG00000103154
HPA015705	ENSG00000109445
HPA045409	ENSG00000106366
HPA026685	ENSG00000107295
HPA063011	ENSG00000106089
HPA056730	ENSG00000105518
HPA041871	ENSG00000104918
HPA041372	ENSG00000111331
HPA042428	ENSG00000101966
HPA053778	ENSG00000111052
HPA049799	ENSG00000106236
HPA001238	ENSG00000100985
HPA066883	ENSG00000186340
HPA007663	ENSG00000197106
HPA042435	ENSG00000183473
HPA044382	ENSG00000198945
HPA058160	ENSG00000250722
HPA058862	ENSG00000187021
HPA058780	ENSG00000196876
HPA050631	ENSG00000232810
HPA060253	ENSG00000181392
HPA051327	ENSG00000183780
HPA001618	ENSG00000162692
HPA006087	ENSG00000164938
HPA051549	ENSG00000166432
HPA049029	ENSG00000166173
HPA018211	ENSG00000162415
HPA029916	ENSG00000161036
HPA028992	ENSG00000164483
HPA030403	ENSG00000164440
HPA034695	ENSG00000163605
HPA032052	ENSG00000163874
HPA035573	ENSG00000168137
HPA030958	ENSG00000164506
HPA058120	ENSG00000164609
HPA063926	ENSG00000162408
HPA039683	ENSG00000166965
HPA041192	ENSG00000165555
HPA043135	ENSG00000168769
HPA054481	ENSG00000160460
HPA056428	ENSG00000165953
HPA064119	ENSG00000168267
HPA054584	ENSG00000164756
HPA003552	ENSG00000168952
HPA026790	ENSG00000173821
HPA067385	ENSG00000177084
HPA011905	ENSG00000170248
HPA025697	ENSG00000173281
HPA054356	ENSG00000172667
HPA030721	ENSG00000174697
HPA034621	ENSG00000174780
HPA039162	ENSG00000173889
HPA039380	ENSG00000168781
HPA040213	ENSG00000176986
HPA060188	ENSG00000173452
HPA045104	ENSG00000174938
HPA048622	ENSG00000170191
HPA062430	ENSG00000175535
HPA018155	ENSG00000134363
HPA069534	ENSG00000173421
HPA001581	ENSG00000100842
HPA035145	ENSG00000073792
HPA035230	ENSG00000177103
HPA035053	ENSG00000115290
HPA038456	ENSG00000186635
HPA058515	ENSG00000121853
HPA040429	ENSG00000164061
HPA041602	ENSG00000087086
HPA042383	ENSG00000179934
HPA042432	ENSG00000160683
HPA043747	ENSG00000147262
HPA043660	ENSG00000213865
HPA046920	ENSG00000162438
HPA047838	ENSG00000147889
HPA048188	ENSG00000214290
HPA048879	ENSG00000124875
HPA048933	ENSG00000126266
HPA069132	ENSG00000117525
HPA051513	ENSG00000185352
HPA053194	ENSG00000121351
HPA054548	ENSG00000149485
HPA056364	ENSG00000175262
HPA058406	ENSG00000134574
HPA061940	ENSG00000138161
HPA062293	ENSG00000163499
HPA063478	ENSG00000119912
HPA063916	ENSG00000014257
HPA065029	ENSG00000113525
HPA065175	ENSG00000112164
HPA065474	ENSG00000163735
HPA065555	ENSG00000198535
HPA068556	ENSG00000154734
HPA024815	ENSG00000147724
HPA013692	ENSG00000006071
HPA064689	ENSG00000007516
HPA016609	ENSG00000095981
HPA062100	ENSG00000086619
HPA064305	ENSG00000084734
HPA054745	ENSG00000064787
HPA030948	ENSG00000112297
HPA038394	ENSG00000113742
HPA036697	ENSG00000136425
HPA063255	ENSG00000121807
HPA048382	ENSG00000122068
HPA063270	ENSG00000136634
HPA022899	ENSG00000137033
HPA037830	ENSG00000151465
HPA066240	ENSG00000141753
HPA060721	ENSG00000144191
HPA050249	ENSG00000100578
HPA040888	ENSG00000104093
HPA041187	ENSG00000104129
HPA063272	ENSG00000105550
HPA065970	ENSG00000182674
HPA027843	ENSG00000196208
HPA063820	ENSG00000185305
HPA045593	ENSG00000178171
HPA008907	ENSG00000163577
HPA028577	ENSG00000163638
HPA012308	ENSG00000171303
HPA050221	ENSG00000169047
HPA064755	ENSG00000171560
HPA048790	ENSG00000100227
HPA003917	ENSG00000100095
HPA057891	ENSG00000007908
HPA046509	ENSG00000095015
HPA056515	ENSG00000015520
HPA063012	ENSG00000064933
HPA058772	ENSG00000087303
HPA048951	ENSG00000095777
HPA039980	ENSG00000118257
HPA008350	ENSG00000131652
HPA014823	ENSG00000120949
HPA030580	ENSG00000120937
HPA061756	ENSG00000130477
HPA046918	ENSG00000116205
HPA010797	ENSG00000151952
HPA040923	ENSG00000152229
HPA047478	ENSG00000136810
HPA056447	ENSG00000105613
HPA041504	ENSG00000105518
HPA058320	ENSG00000106236
HPA044304	ENSG00000186340
HPA023166	ENSG00000198945
HPA047248	ENSG00000204569
HPA055037	ENSG00000232810
HPA051908	ENSG00000181392
HPA020338	ENSG00000166173
HPA065953	ENSG00000164756
HPA065860	ENSG00000177084
HPA027567	ENSG00000172667
HPA040813	ENSG00000174780
HPA040196	ENSG00000176986
HPA050342	ENSG00000170191
HPA048093	ENSG00000105671
HPA052679	ENSG00000078814
